EESchema Schematic File Version 4
LIBS:AVRCD-cache
EELAYER 26 0
EELAYER END
$Descr A4 11693 8268
encoding utf-8
Sheet 1 1
Title "AVR Controller with Display"
Date "2018-12-23"
Rev "1.0"
Comp "AVRCD"
Comment1 ""
Comment2 ""
Comment3 ""
Comment4 ""
$EndDescr
$Comp
L AVRCD-rescue:ATMEGA644P-20AU U1
U 1 1 5AB54181
P 3100 4000
F 0 "U1" H 2250 5880 50  0000 L BNN
F 1 "ATMEGA644P-20AU" H 3500 2050 50  0000 L BNN
F 2 "Housings_QFP:TQFP-44_10x10mm_Pitch0.8mm" H 3100 4000 50  0001 C CIN
F 3 "" H 3100 4000 50  0001 C CNN
	1    3100 4000
	1    0    0    -1  
$EndComp
$Comp
L AVRCD-rescue:LCD16X2 DS1
U 1 1 5AB54834
P 5050 1200
F 0 "DS1" H 4250 1600 50  0000 C CNN
F 1 "LCD16X2" H 5750 1600 50  0000 C CNN
F 2 "aaa:LCD-016N002L" H 5050 1150 50  0001 C CIN
F 3 "" H 5050 1200 50  0001 C CNN
	1    5050 1200
	1    0    0    -1  
$EndComp
$Comp
L power:+5V #PWR01
U 1 1 5AB54BB3
P 5000 2000
F 0 "#PWR01" H 5000 1850 50  0001 C CNN
F 1 "+5V" H 5000 2140 50  0000 C CNN
F 2 "" H 5000 2000 50  0001 C CNN
F 3 "" H 5000 2000 50  0001 C CNN
	1    5000 2000
	-1   0    0    1   
$EndComp
$Comp
L AVRCD-rescue:AVR-ISP-6 J5
U 1 1 5AB54C8C
P 7700 1100
F 0 "J5" H 7595 1340 50  0000 C CNN
F 1 "AVR-ISP-6" H 7435 870 50  0000 L BNN
F 2 "Pin_Headers:Pin_Header_Straight_2x03_Pitch2.54mm" V 7180 1140 50  0001 C CNN
F 3 "" H 7675 1100 50  0001 C CNN
	1    7700 1100
	1    0    0    -1  
$EndComp
$Comp
L power:+5V #PWR02
U 1 1 5AB54DDD
P 8100 800
F 0 "#PWR02" H 8100 650 50  0001 C CNN
F 1 "+5V" H 8100 940 50  0000 C CNN
F 2 "" H 8100 800 50  0001 C CNN
F 3 "" H 8100 800 50  0001 C CNN
	1    8100 800 
	1    0    0    -1  
$EndComp
Text Label 8400 1100 2    60   ~ 0
SPI_MOSI
Text Label 4500 3900 2    60   ~ 0
SPI_SCK
Text Label 4500 3800 2    60   ~ 0
SPI_MISO
Text Label 4500 3700 2    60   ~ 0
SPI_MOSI
$Comp
L AVRCD-rescue:BC817-40 Q1
U 1 1 5AB54FEE
P 6300 2000
F 0 "Q1" H 6500 2075 50  0000 L CNN
F 1 "BC817-40" H 6500 2000 50  0000 L CNN
F 2 "TO_SOT_Packages_SMD:SOT-23" H 6500 1925 50  0001 L CIN
F 3 "" H 6300 2000 50  0001 L CNN
	1    6300 2000
	-1   0    0    -1  
$EndComp
$Comp
L power:GND #PWR03
U 1 1 5AB550FA
P 6200 2200
F 0 "#PWR03" H 6200 1950 50  0001 C CNN
F 1 "GND" H 6200 2050 50  0000 C CNN
F 2 "" H 6200 2200 50  0001 C CNN
F 3 "" H 6200 2200 50  0001 C CNN
	1    6200 2200
	1    0    0    -1  
$EndComp
$Comp
L AVRCD-rescue:R_Small R1
U 1 1 5AB5532B
P 6600 2200
F 0 "R1" H 6630 2220 50  0000 L CNN
F 1 "1k" H 6630 2160 50  0000 L CNN
F 2 "Resistors_SMD:R_1206" H 6600 2200 50  0001 C CNN
F 3 "" H 6600 2200 50  0001 C CNN
	1    6600 2200
	1    0    0    -1  
$EndComp
$Comp
L power:GND #PWR04
U 1 1 5AB556DC
P 4300 2100
F 0 "#PWR04" H 4300 1850 50  0001 C CNN
F 1 "GND" H 4300 1950 50  0000 C CNN
F 2 "" H 4300 2100 50  0001 C CNN
F 3 "" H 4300 2100 50  0001 C CNN
	1    4300 2100
	1    0    0    -1  
$EndComp
$Comp
L adafruit:TRIMPOT3386 TM1
U 1 1 5AB55904
P 3900 1600
F 0 "TM1" V 3630 1450 45  0000 L BNN
F 1 "10k" V 3715 1450 45  0000 L BNN
F 2 "Potentiometers:Potentiometer_Trimmer_Piher_PT-10h5_Vertical_Px5.0mm_Py5.0mm" H 3930 1750 20  0001 C CNN
F 3 "" H 3900 1600 60  0001 C CNN
	1    3900 1600
	-1   0    0    1   
$EndComp
$Comp
L AVRCD-rescue:R_Small R2
U 1 1 5AB559E2
P 3900 1200
F 0 "R2" H 3930 1220 50  0000 L CNN
F 1 "10k" H 3930 1160 50  0000 L CNN
F 2 "Resistors_SMD:R_1206" H 3900 1200 50  0001 C CNN
F 3 "" H 3900 1200 50  0001 C CNN
	1    3900 1200
	1    0    0    -1  
$EndComp
$Comp
L power:+5V #PWR05
U 1 1 5AB55B3E
P 3900 1000
F 0 "#PWR05" H 3900 850 50  0001 C CNN
F 1 "+5V" H 3900 1140 50  0000 C CNN
F 2 "" H 3900 1000 50  0001 C CNN
F 3 "" H 3900 1000 50  0001 C CNN
	1    3900 1000
	1    0    0    -1  
$EndComp
$Comp
L AVRCD-rescue:Crystal Y1
U 1 1 5AB5FE7A
P 1500 2700
F 0 "Y1" H 1500 2850 50  0000 C CNN
F 1 "16MHz" H 1500 2550 50  0000 C CNN
F 2 "Crystals:Crystal_HC49-4H_Vertical" H 1500 2700 50  0001 C CNN
F 3 "" H 1500 2700 50  0001 C CNN
	1    1500 2700
	1    0    0    -1  
$EndComp
$Comp
L AVRCD-rescue:C_Small C3
U 1 1 5AB5FE81
P 1750 2500
F 0 "C3" H 1760 2570 50  0000 L CNN
F 1 "22p" H 1760 2420 50  0000 L CNN
F 2 "Capacitors_SMD:C_1206" H 1750 2500 50  0001 C CNN
F 3 "" H 1750 2500 50  0001 C CNN
	1    1750 2500
	1    0    0    -1  
$EndComp
$Comp
L AVRCD-rescue:C_Small C2
U 1 1 5AB5FE88
P 1250 2500
F 0 "C2" H 1260 2570 50  0000 L CNN
F 1 "22p" H 1260 2420 50  0000 L CNN
F 2 "Capacitors_SMD:C_1206" H 1250 2500 50  0001 C CNN
F 3 "" H 1250 2500 50  0001 C CNN
	1    1250 2500
	1    0    0    -1  
$EndComp
$Comp
L power:GND #PWR06
U 1 1 5AB5FE8F
P 2050 2450
F 0 "#PWR06" H 2050 2200 50  0001 C CNN
F 1 "GND" H 2050 2300 50  0000 C CNN
F 2 "" H 2050 2450 50  0001 C CNN
F 3 "" H 2050 2450 50  0001 C CNN
	1    2050 2450
	1    0    0    -1  
$EndComp
Text Label 2350 2000 2    60   ~ 0
RST
$Comp
L AVRCD-rescue:R_Small R3
U 1 1 5AB5FE96
P 2050 1850
F 0 "R3" H 2080 1870 50  0000 L CNN
F 1 "1k" H 2080 1810 50  0000 L CNN
F 2 "Resistors_SMD:R_1206" H 2050 1850 50  0001 C CNN
F 3 "" H 2050 1850 50  0001 C CNN
	1    2050 1850
	1    0    0    -1  
$EndComp
$Comp
L power:+5V #PWR07
U 1 1 5AB5FE9D
P 2050 1700
F 0 "#PWR07" H 2050 1550 50  0001 C CNN
F 1 "+5V" H 2050 1840 50  0000 C CNN
F 2 "" H 2050 1700 50  0001 C CNN
F 3 "" H 2050 1700 50  0001 C CNN
	1    2050 1700
	1    0    0    -1  
$EndComp
Text Label 4500 5000 2    60   ~ 0
RXD0
Text Label 4500 5100 2    60   ~ 0
TXD0
$Comp
L adafruit:DS1302 M?
U 1 1 5AB6144F
P 5000 6950
AR Path="/5AB61031/5AB6144F" Ref="M?"  Part="1" 
AR Path="/5AB6144F" Ref="U2"  Part="1" 
F 0 "U2" H 4500 6350 45  0000 L BNN
F 1 "DS1302" H 5000 6950 45  0001 L BNN
F 2 "aaa:AAA_SO08" H 5030 7100 20  0001 C CNN
F 3 "" H 5000 6950 60  0001 C CNN
	1    5000 6950
	1    0    0    -1  
$EndComp
$Comp
L AVRCD-rescue:Crystal_Small Y2
U 1 1 5AB61456
P 4900 6200
F 0 "Y2" H 4900 6300 50  0000 C CNN
F 1 "32.768kHz" H 4900 6400 50  0000 C CNN
F 2 "Crystals:Crystal_AT310_d3.0mm_l10.0mm_Horizontal_1EP_style2" H 4900 6200 50  0001 C CNN
F 3 "" H 4900 6200 50  0001 C CNN
	1    4900 6200
	-1   0    0    -1  
$EndComp
$Comp
L power:GND #PWR08
U 1 1 5AB61464
P 4250 6400
F 0 "#PWR08" H 4250 6150 50  0001 C CNN
F 1 "GND" H 4250 6250 50  0000 C CNN
F 2 "" H 4250 6400 50  0001 C CNN
F 3 "" H 4250 6400 50  0001 C CNN
	1    4250 6400
	1    0    0    -1  
$EndComp
$Comp
L AVRCD-rescue:CP C10
U 1 1 5AB6146A
P 5800 7250
F 0 "C10" H 5825 7350 50  0000 L CNN
F 1 "1F/5.5V" H 5825 7150 50  0000 L CNN
F 2 "aaa:CP_Radial_D22.0mm_P10.00_5mm_SnapIn" H 5838 7100 50  0001 C CNN
F 3 "" H 5800 7250 50  0001 C CNN
	1    5800 7250
	1    0    0    -1  
$EndComp
$Comp
L AVRCD-rescue:C_Small C11
U 1 1 5AB61471
P 6200 7250
F 0 "C11" H 6210 7320 50  0000 L CNN
F 1 "100n" H 6210 7170 50  0000 L CNN
F 2 "Capacitors_SMD:C_1206" H 6200 7250 50  0001 C CNN
F 3 "" H 6200 7250 50  0001 C CNN
	1    6200 7250
	1    0    0    -1  
$EndComp
$Comp
L power:GND #PWR09
U 1 1 5AB61486
P 5800 7550
F 0 "#PWR09" H 5800 7300 50  0001 C CNN
F 1 "GND" H 5800 7400 50  0000 C CNN
F 2 "" H 5800 7550 50  0001 C CNN
F 3 "" H 5800 7550 50  0001 C CNN
	1    5800 7550
	1    0    0    -1  
$EndComp
$Comp
L AVRCD-rescue:C_Small C12
U 1 1 5AB6148C
P 6550 7250
F 0 "C12" H 6560 7320 50  0000 L CNN
F 1 "100n" H 6560 7170 50  0000 L CNN
F 2 "Capacitors_SMD:C_1206" H 6550 7250 50  0001 C CNN
F 3 "" H 6550 7250 50  0001 C CNN
	1    6550 7250
	1    0    0    -1  
$EndComp
$Comp
L power:+5V #PWR010
U 1 1 5AB61497
P 6550 6650
F 0 "#PWR010" H 6550 6500 50  0001 C CNN
F 1 "+5V" H 6550 6790 50  0000 C CNN
F 2 "" H 6550 6650 50  0001 C CNN
F 3 "" H 6550 6650 50  0001 C CNN
	1    6550 6650
	1    0    0    -1  
$EndComp
$Comp
L AVRCD-rescue:R_Small R25
U 1 1 5AB6149E
P 3850 6650
F 0 "R25" H 3880 6670 50  0000 L CNN
F 1 "4k7" H 3880 6610 50  0000 L CNN
F 2 "Resistors_SMD:R_1206" H 3850 6650 50  0001 C CNN
F 3 "" H 3850 6650 50  0001 C CNN
	1    3850 6650
	1    0    0    -1  
$EndComp
$Comp
L AVRCD-rescue:R_Small R24
U 1 1 5AB614A5
P 3650 6650
F 0 "R24" H 3680 6670 50  0000 L CNN
F 1 "4k7" H 3680 6610 50  0000 L CNN
F 2 "Resistors_SMD:R_1206" H 3650 6650 50  0001 C CNN
F 3 "" H 3650 6650 50  0001 C CNN
	1    3650 6650
	1    0    0    -1  
$EndComp
$Comp
L power:+5V #PWR011
U 1 1 5AB614B8
P 3750 6400
F 0 "#PWR011" H 3750 6250 50  0001 C CNN
F 1 "+5V" H 3750 6540 50  0000 C CNN
F 2 "" H 3750 6400 50  0001 C CNN
F 3 "" H 3750 6400 50  0001 C CNN
	1    3750 6400
	1    0    0    -1  
$EndComp
Text Label 3150 6850 0    60   ~ 0
RTC_CE
Text Label 3150 7050 0    60   ~ 0
I2C_SCL
Text Label 3150 6950 0    60   ~ 0
I2C_SDA
Text Label 4500 5400 2    60   ~ 0
RW1
Text Label 4500 5200 2    60   ~ 0
RXD1
Text Label 4500 5300 2    60   ~ 0
TXD1
$Comp
L AVRCD-rescue:D_TVS D6
U 1 1 5AB67C20
P 9650 4600
F 0 "D6" H 9650 4700 50  0000 C CNN
F 1 "6V8" H 9650 4500 50  0000 C CNN
F 2 "aaa:AAA_DO-214AA" H 9650 4600 50  0001 C CNN
F 3 "" H 9650 4600 50  0001 C CNN
	1    9650 4600
	0    1    1    0   
$EndComp
$Comp
L aaa:MAX485 U3
U 1 1 5AB67C27
P 8450 4100
F 0 "U3" H 8150 4450 50  0000 L CNN
F 1 "MAX485" H 8550 4450 50  0000 L CNN
F 2 "aaa:AAA_SO08" H 10500 2950 50  0001 C CIN
F 3 "" H 8450 4100 50  0001 C CNN
	1    8450 4100
	1    0    0    -1  
$EndComp
$Comp
L AVRCD-rescue:R_Small R13
U 1 1 5AB67C3C
P 9300 4350
F 0 "R13" H 9330 4370 50  0000 L CNN
F 1 "4k7" H 9330 4310 50  0000 L CNN
F 2 "Resistors_SMD:R_1206" H 9300 4350 50  0001 C CNN
F 3 "" H 9300 4350 50  0001 C CNN
	1    9300 4350
	1    0    0    -1  
$EndComp
$Comp
L AVRCD-rescue:R_Small R10
U 1 1 5AB67C43
P 9300 3850
F 0 "R10" H 9330 3870 50  0000 L CNN
F 1 "4k7" H 9330 3810 50  0000 L CNN
F 2 "Resistors_SMD:R_1206" H 9300 3850 50  0001 C CNN
F 3 "" H 9300 3850 50  0001 C CNN
	1    9300 3850
	1    0    0    -1  
$EndComp
$Comp
L AVRCD-rescue:R_Small R15
U 1 1 5AB67C4A
P 10350 4500
F 0 "R15" H 10380 4520 50  0000 L CNN
F 1 "120" H 10380 4460 50  0000 L CNN
F 2 "Resistors_SMD:R_1210" H 10350 4500 50  0001 C CNN
F 3 "" H 10350 4500 50  0001 C CNN
	1    10350 4500
	0    1    1    0   
$EndComp
$Comp
L AVRCD-rescue:D_TVS D5
U 1 1 5AB67C51
P 9650 4100
F 0 "D5" H 9650 4200 50  0000 C CNN
F 1 "6V8" H 9650 4000 50  0000 C CNN
F 2 "aaa:AAA_DO-214AA" H 9650 4100 50  0001 C CNN
F 3 "" H 9650 4100 50  0001 C CNN
	1    9650 4100
	0    1    1    0   
$EndComp
$Comp
L AVRCD-rescue:D_TVS D7
U 1 1 5AB67C58
P 9950 4600
F 0 "D7" H 9950 4700 50  0000 C CNN
F 1 "6V8" H 9950 4500 50  0000 C CNN
F 2 "aaa:AAA_DO-214AA" H 9950 4600 50  0001 C CNN
F 3 "" H 9950 4600 50  0001 C CNN
	1    9950 4600
	0    1    -1   0   
$EndComp
$Comp
L power:GND #PWR012
U 1 1 5AB67C5F
P 8450 4600
F 0 "#PWR012" H 8450 4350 50  0001 C CNN
F 1 "GND" H 8450 4450 50  0000 C CNN
F 2 "" H 8450 4600 50  0001 C CNN
F 3 "" H 8450 4600 50  0001 C CNN
	1    8450 4600
	1    0    0    -1  
$EndComp
$Comp
L power:GND #PWR013
U 1 1 5AB67C65
P 9800 4850
F 0 "#PWR013" H 9800 4600 50  0001 C CNN
F 1 "GND" H 9800 4700 50  0000 C CNN
F 2 "" H 9800 4850 50  0001 C CNN
F 3 "" H 9800 4850 50  0001 C CNN
	1    9800 4850
	1    0    0    -1  
$EndComp
$Comp
L power:GND #PWR014
U 1 1 5AB67C6B
P 9300 4550
F 0 "#PWR014" H 9300 4300 50  0001 C CNN
F 1 "GND" H 9300 4400 50  0000 C CNN
F 2 "" H 9300 4550 50  0001 C CNN
F 3 "" H 9300 4550 50  0001 C CNN
	1    9300 4550
	1    0    0    -1  
$EndComp
$Comp
L power:+5V #PWR015
U 1 1 5AB67C71
P 8450 3650
F 0 "#PWR015" H 8450 3500 50  0001 C CNN
F 1 "+5V" H 8450 3790 50  0000 C CNN
F 2 "" H 8450 3650 50  0001 C CNN
F 3 "" H 8450 3650 50  0001 C CNN
	1    8450 3650
	1    0    0    -1  
$EndComp
$Comp
L power:+5V #PWR016
U 1 1 5AB67C77
P 9300 3700
F 0 "#PWR016" H 9300 3550 50  0001 C CNN
F 1 "+5V" H 9300 3840 50  0000 C CNN
F 2 "" H 9300 3700 50  0001 C CNN
F 3 "" H 9300 3700 50  0001 C CNN
	1    9300 3700
	1    0    0    -1  
$EndComp
$Comp
L AVRCD-rescue:C_Small C7
U 1 1 5AB67C91
P 8750 4850
F 0 "C7" H 8760 4920 50  0000 L CNN
F 1 "100n" H 8760 4770 50  0000 L CNN
F 2 "Capacitors_SMD:C_1206" H 8750 4850 50  0001 C CNN
F 3 "" H 8750 4850 50  0001 C CNN
	1    8750 4850
	-1   0    0    1   
$EndComp
$Comp
L AVRCD-rescue:CP_Small C8
U 1 1 5AB67C98
P 9050 4850
F 0 "C8" H 9060 4920 50  0000 L CNN
F 1 "22u/6.3" H 9060 4770 50  0000 L CNN
F 2 "Capacitors_Tantalum_SMD:CP_Tantalum_Case-B_EIA-3528-21_Reflow" H 9050 4850 50  0001 C CNN
F 3 "" H 9050 4850 50  0001 C CNN
	1    9050 4850
	1    0    0    -1  
$EndComp
$Comp
L power:GND #PWR017
U 1 1 5AB67C9F
P 8900 5000
F 0 "#PWR017" H 8900 4750 50  0001 C CNN
F 1 "GND" H 8900 4850 50  0000 C CNN
F 2 "" H 8900 5000 50  0001 C CNN
F 3 "" H 8900 5000 50  0001 C CNN
	1    8900 5000
	1    0    0    -1  
$EndComp
$Comp
L power:+5V #PWR018
U 1 1 5AB67CA5
P 8900 4700
F 0 "#PWR018" H 8900 4550 50  0001 C CNN
F 1 "+5V" H 8900 4840 50  0000 C CNN
F 2 "" H 8900 4700 50  0001 C CNN
F 3 "" H 8900 4700 50  0001 C CNN
	1    8900 4700
	1    0    0    -1  
$EndComp
Text Label 7600 3900 0    60   ~ 0
RXD1
Text Label 7600 4300 0    60   ~ 0
TXD1
Text Label 7600 4100 0    60   ~ 0
RW1
$Comp
L AVRCD-rescue:Screw_Terminal_1x05 J1
U 1 1 5AB67CD6
P 10750 4100
F 0 "J1" H 10750 4650 50  0000 C TNN
F 1 "Screw_Terminal_1x05" V 10600 4100 50  0000 C TNN
F 2 "aaa:ARK210_5" H 10750 3575 50  0001 C CNN
F 3 "" H 10725 4400 50  0001 C CNN
	1    10750 4100
	-1   0    0    1   
$EndComp
$Comp
L power:GND #PWR019
U 1 1 5AB67CE8
P 10300 3900
F 0 "#PWR019" H 10300 3650 50  0001 C CNN
F 1 "GND" H 10300 3750 50  0000 C CNN
F 2 "" H 10300 3900 50  0001 C CNN
F 3 "" H 10300 3900 50  0001 C CNN
	1    10300 3900
	1    0    0    -1  
$EndComp
$Comp
L power:VCC #PWR020
U 1 1 5AB67CF2
P 10450 3600
F 0 "#PWR020" H 10450 3450 50  0001 C CNN
F 1 "VCC" H 10450 3750 50  0000 C CNN
F 2 "" H 10450 3600 50  0001 C CNN
F 3 "" H 10450 3600 50  0001 C CNN
	1    10450 3600
	1    0    0    -1  
$EndComp
$Comp
L power:GND #PWR021
U 1 1 5AB6A8D7
P 3000 6100
F 0 "#PWR021" H 3000 5850 50  0001 C CNN
F 1 "GND" H 3000 5950 50  0000 C CNN
F 2 "" H 3000 6100 50  0001 C CNN
F 3 "" H 3000 6100 50  0001 C CNN
	1    3000 6100
	1    0    0    -1  
$EndComp
$Comp
L power:+5V #PWR022
U 1 1 5AB6B061
P 3100 1900
F 0 "#PWR022" H 3100 1750 50  0001 C CNN
F 1 "+5V" H 3100 2040 50  0000 C CNN
F 2 "" H 3100 1900 50  0001 C CNN
F 3 "" H 3100 1900 50  0001 C CNN
	1    3100 1900
	1    0    0    -1  
$EndComp
Text Label 4500 4200 2    60   ~ 0
I2C_SDA
Text Label 4500 4100 2    60   ~ 0
I2C_SCL
Text Label 4500 4300 2    60   ~ 0
RTC_CE
$Comp
L AVRCD-rescue:CONN_01X09 J2
U 1 1 5AB6CE16
P 6050 4050
F 0 "J2" H 6050 4550 50  0000 C CNN
F 1 "CONN_01X09" V 6150 4050 50  0000 C CNN
F 2 "Pin_Headers:Pin_Header_Angled_1x09_Pitch2.54mm" H 6050 4050 50  0001 C CNN
F 3 "" H 6050 4050 50  0001 C CNN
	1    6050 4050
	1    0    0    -1  
$EndComp
$Comp
L AVRCD-rescue:R_Small R16
U 1 1 5AB6D131
P 4950 3450
F 0 "R16" H 4980 3470 50  0000 L CNN
F 1 "1k" H 4980 3410 50  0000 L CNN
F 2 "Resistors_SMD:R_1206" H 4950 3450 50  0001 C CNN
F 3 "" H 4950 3450 50  0001 C CNN
	1    4950 3450
	1    0    0    -1  
$EndComp
$Comp
L AVRCD-rescue:R_Small R17
U 1 1 5AB6D25F
P 5150 3450
F 0 "R17" H 5180 3470 50  0000 L CNN
F 1 "1k" H 5180 3410 50  0000 L CNN
F 2 "Resistors_SMD:R_1206" H 5150 3450 50  0001 C CNN
F 3 "" H 5150 3450 50  0001 C CNN
	1    5150 3450
	1    0    0    -1  
$EndComp
$Comp
L AVRCD-rescue:R_Small R18
U 1 1 5AB6D310
P 5350 3450
F 0 "R18" H 5380 3470 50  0000 L CNN
F 1 "1k" H 5380 3410 50  0000 L CNN
F 2 "Resistors_SMD:R_1206" H 5350 3450 50  0001 C CNN
F 3 "" H 5350 3450 50  0001 C CNN
	1    5350 3450
	1    0    0    -1  
$EndComp
$Comp
L AVRCD-rescue:R_Small R19
U 1 1 5AB6D3FA
P 5550 3450
F 0 "R19" H 5580 3470 50  0000 L CNN
F 1 "1k" H 5580 3410 50  0000 L CNN
F 2 "Resistors_SMD:R_1206" H 5550 3450 50  0001 C CNN
F 3 "" H 5550 3450 50  0001 C CNN
	1    5550 3450
	1    0    0    -1  
$EndComp
$Comp
L AVRCD-rescue:R_Small R20
U 1 1 5AB6D4B9
P 4950 4550
F 0 "R20" H 4980 4570 50  0000 L CNN
F 1 "1k" H 4980 4510 50  0000 L CNN
F 2 "Resistors_SMD:R_1206" H 4950 4550 50  0001 C CNN
F 3 "" H 4950 4550 50  0001 C CNN
	1    4950 4550
	1    0    0    -1  
$EndComp
$Comp
L AVRCD-rescue:R_Small R21
U 1 1 5AB6D57D
P 5150 4550
F 0 "R21" H 5180 4570 50  0000 L CNN
F 1 "1k" H 5180 4510 50  0000 L CNN
F 2 "Resistors_SMD:R_1206" H 5150 4550 50  0001 C CNN
F 3 "" H 5150 4550 50  0001 C CNN
	1    5150 4550
	1    0    0    -1  
$EndComp
$Comp
L AVRCD-rescue:R_Small R22
U 1 1 5AB6D67D
P 5350 4550
F 0 "R22" H 5380 4570 50  0000 L CNN
F 1 "1k" H 5380 4510 50  0000 L CNN
F 2 "Resistors_SMD:R_1206" H 5350 4550 50  0001 C CNN
F 3 "" H 5350 4550 50  0001 C CNN
	1    5350 4550
	1    0    0    -1  
$EndComp
$Comp
L AVRCD-rescue:R_Small R23
U 1 1 5AB6D747
P 5550 4550
F 0 "R23" H 5580 4570 50  0000 L CNN
F 1 "1k" H 5580 4510 50  0000 L CNN
F 2 "Resistors_SMD:R_1206" H 5550 4550 50  0001 C CNN
F 3 "" H 5550 4550 50  0001 C CNN
	1    5550 4550
	1    0    0    -1  
$EndComp
$Comp
L power:GND #PWR023
U 1 1 5AB6F158
P 5800 4550
F 0 "#PWR023" H 5800 4300 50  0001 C CNN
F 1 "GND" H 5800 4400 50  0000 C CNN
F 2 "" H 5800 4550 50  0001 C CNN
F 3 "" H 5800 4550 50  0001 C CNN
	1    5800 4550
	1    0    0    -1  
$EndComp
$Comp
L power:+5V #PWR024
U 1 1 5AB705F1
P 5550 3250
F 0 "#PWR024" H 5550 3100 50  0001 C CNN
F 1 "+5V" H 5550 3390 50  0000 C CNN
F 2 "" H 5550 3250 50  0001 C CNN
F 3 "" H 5550 3250 50  0001 C CNN
	1    5550 3250
	1    0    0    -1  
$EndComp
$Comp
L power:+5V #PWR025
U 1 1 5AB706B1
P 5550 4750
F 0 "#PWR025" H 5550 4600 50  0001 C CNN
F 1 "+5V" H 5550 4890 50  0000 C CNN
F 2 "" H 5550 4750 50  0001 C CNN
F 3 "" H 5550 4750 50  0001 C CNN
	1    5550 4750
	0    1    1    0   
$EndComp
$Comp
L AVRCD-rescue:C_Small C13
U 1 1 5AB70DF4
P 8800 5850
F 0 "C13" H 8810 5920 50  0000 L CNN
F 1 "100n" H 8810 5770 50  0000 L CNN
F 2 "Capacitors_SMD:C_1206" H 8800 5850 50  0001 C CNN
F 3 "" H 8800 5850 50  0001 C CNN
	1    8800 5850
	-1   0    0    1   
$EndComp
$Comp
L adafruit:1N4004 D?
U 1 1 5AB71F5E
P 5600 5450
AR Path="/5AB71A66/5AB71F5E" Ref="D?"  Part="1" 
AR Path="/5AB71F5E" Ref="D9"  Part="1" 
F 0 "D9" H 5700 5469 45  0000 L BNN
F 1 "1N4004" H 5700 5359 45  0000 L BNN
F 2 "aaa:AAA_DO-214AA" H 5630 5600 20  0001 C CNN
F 3 "" H 5600 5450 60  0001 C CNN
	1    5600 5450
	1    0    0    -1  
$EndComp
$Comp
L AVRCD-rescue:C_Small C17
U 1 1 5AB71F65
P 6050 5650
F 0 "C17" H 6060 5720 50  0000 L CNN
F 1 "100n" H 6060 5570 50  0000 L CNN
F 2 "Capacitors_SMD:C_1206" H 6050 5650 50  0001 C CNN
F 3 "" H 6050 5650 50  0001 C CNN
	1    6050 5650
	1    0    0    -1  
$EndComp
$Comp
L power:GND #PWR026
U 1 1 5AB71F6C
P 8500 6100
F 0 "#PWR026" H 8500 5850 50  0001 C CNN
F 1 "GND" H 8500 5950 50  0000 C CNN
F 2 "" H 8500 6100 50  0001 C CNN
F 3 "" H 8500 6100 50  0001 C CNN
	1    8500 6100
	1    0    0    -1  
$EndComp
$Comp
L AVRCD-rescue:CP_Small C18
U 1 1 5AB71F72
P 6350 5650
F 0 "C18" H 6360 5720 50  0000 L CNN
F 1 "1m/35V" H 6360 5570 50  0000 L CNN
F 2 "Capacitors_THT:CP_Radial_D10.0mm_P5.00mm" H 6350 5650 50  0001 C CNN
F 3 "" H 6350 5650 50  0001 C CNN
	1    6350 5650
	1    0    0    -1  
$EndComp
$Comp
L aaa:TRS1 U4
U 1 1 5AB71F79
P 7300 5450
F 0 "U4" H 7000 5600 60  0000 C CNN
F 1 "TSR1–2450" H 7400 5600 60  0000 C CNN
F 2 "TO_SOT_Packages_THT:TO-220_Vertical" H 7300 5450 60  0001 C CNN
F 3 "" H 7300 5450 60  0001 C CNN
	1    7300 5450
	1    0    0    -1  
$EndComp
$Comp
L AVRCD-rescue:CP_Small C15
U 1 1 5AB71F80
P 8000 5600
F 0 "C15" H 8010 5670 50  0000 L CNN
F 1 "1m/6.3V" H 8010 5520 50  0000 L CNN
F 2 "Capacitors_THT:CP_Radial_D10.0mm_P5.00mm" H 8000 5600 50  0001 C CNN
F 3 "" H 8000 5600 50  0001 C CNN
	1    8000 5600
	1    0    0    -1  
$EndComp
$Comp
L AVRCD-rescue:C_Small C16
U 1 1 5AB71F87
P 8500 5600
F 0 "C16" H 8510 5670 50  0000 L CNN
F 1 "100n" H 8510 5520 50  0000 L CNN
F 2 "Capacitors_SMD:C_1206" H 8500 5600 50  0001 C CNN
F 3 "" H 8500 5600 50  0001 C CNN
	1    8500 5600
	1    0    0    -1  
$EndComp
$Comp
L power:+5V #PWR027
U 1 1 5AB71FA2
P 8500 5350
F 0 "#PWR027" H 8500 5200 50  0001 C CNN
F 1 "+5V" H 8500 5490 50  0000 C CNN
F 2 "" H 8500 5350 50  0001 C CNN
F 3 "" H 8500 5350 50  0001 C CNN
	1    8500 5350
	1    0    0    -1  
$EndComp
$Comp
L power:VCC #PWR028
U 1 1 5AB72310
P 5350 5450
F 0 "#PWR028" H 5350 5300 50  0001 C CNN
F 1 "VCC" H 5350 5600 50  0000 C CNN
F 2 "" H 5350 5450 50  0001 C CNN
F 3 "" H 5350 5450 50  0001 C CNN
	1    5350 5450
	0    -1   -1   0   
$EndComp
$Comp
L AVRCD-rescue:C_Small C20
U 1 1 5AB724FE
P 9050 5850
F 0 "C20" H 9060 5920 50  0000 L CNN
F 1 "100n" H 9060 5770 50  0000 L CNN
F 2 "Capacitors_SMD:C_1206" H 9050 5850 50  0001 C CNN
F 3 "" H 9050 5850 50  0001 C CNN
	1    9050 5850
	1    0    0    -1  
$EndComp
$Comp
L AVRCD-rescue:C_Small C21
U 1 1 5AB725E5
P 9300 5850
F 0 "C21" H 9310 5920 50  0000 L CNN
F 1 "100n" H 9310 5770 50  0000 L CNN
F 2 "Capacitors_SMD:C_1206" H 9300 5850 50  0001 C CNN
F 3 "" H 9300 5850 50  0001 C CNN
	1    9300 5850
	1    0    0    -1  
$EndComp
$Comp
L AVRCD-rescue:C_Small C22
U 1 1 5AB726D1
P 9550 5850
F 0 "C22" H 9560 5920 50  0000 L CNN
F 1 "100n" H 9560 5770 50  0000 L CNN
F 2 "Capacitors_SMD:C_1206" H 9550 5850 50  0001 C CNN
F 3 "" H 9550 5850 50  0001 C CNN
	1    9550 5850
	1    0    0    -1  
$EndComp
$Comp
L power:GND #PWR029
U 1 1 5AB7320E
P 8800 5950
F 0 "#PWR029" H 8800 5700 50  0001 C CNN
F 1 "GND" H 8800 5800 50  0000 C CNN
F 2 "" H 8800 5950 50  0001 C CNN
F 3 "" H 8800 5950 50  0001 C CNN
	1    8800 5950
	1    0    0    -1  
$EndComp
$Comp
L power:+5V #PWR030
U 1 1 5AB73339
P 8800 5750
F 0 "#PWR030" H 8800 5600 50  0001 C CNN
F 1 "+5V" H 8800 5890 50  0000 C CNN
F 2 "" H 8800 5750 50  0001 C CNN
F 3 "" H 8800 5750 50  0001 C CNN
	1    8800 5750
	1    0    0    -1  
$EndComp
Text Label 6900 1000 0    60   ~ 0
SPI_MISO
Text Label 6900 1100 0    60   ~ 0
SPI_SCK
Text Label 6900 1200 0    60   ~ 0
RST
$Comp
L AVRCD-rescue:C_Small C9
U 1 1 5AB7DBF5
P 5300 6300
F 0 "C9" H 5310 6370 50  0000 L CNN
F 1 "22p" H 5310 6220 50  0000 L CNN
F 2 "Capacitors_SMD:C_1206" H 5300 6300 50  0001 C CNN
F 3 "" H 5300 6300 50  0001 C CNN
	1    5300 6300
	0    -1   1    0   
$EndComp
$Comp
L AVRCD-rescue:C_Small C23
U 1 1 5AB7E2F6
P 4600 6300
F 0 "C23" H 4610 6370 50  0000 L CNN
F 1 "22p" H 4610 6220 50  0000 L CNN
F 2 "Capacitors_SMD:C_1206" H 4600 6300 50  0001 C CNN
F 3 "" H 4600 6300 50  0001 C CNN
	1    4600 6300
	0    -1   1    0   
$EndComp
$Comp
L power:GND #PWR031
U 1 1 5AB7E775
P 5650 6400
F 0 "#PWR031" H 5650 6150 50  0001 C CNN
F 1 "GND" H 5650 6250 50  0000 C CNN
F 2 "" H 5650 6400 50  0001 C CNN
F 3 "" H 5650 6400 50  0001 C CNN
	1    5650 6400
	1    0    0    -1  
$EndComp
$Comp
L AVRCD-rescue:LED D1
U 1 1 5AB62718
P 9300 1050
F 0 "D1" H 9300 1150 50  0000 C CNN
F 1 "LED" H 9300 950 50  0000 C CNN
F 2 "LEDs:LED_1206" H 9300 1050 50  0001 C CNN
F 3 "" H 9300 1050 50  0001 C CNN
	1    9300 1050
	1    0    0    -1  
$EndComp
$Comp
L AVRCD-rescue:R_Small R8
U 1 1 5AB62711
P 9000 1050
F 0 "R8" H 9030 1070 50  0000 L CNN
F 1 "470" H 9030 1010 50  0000 L CNN
F 2 "Resistors_SMD:R_1206" H 9000 1050 50  0001 C CNN
F 3 "" H 9000 1050 50  0001 C CNN
	1    9000 1050
	0    1    1    0   
$EndComp
Text Label 9700 1050 2    60   ~ 0
LED1
Text Label 4600 3200 2    60   ~ 0
LED1
Text Label 4600 3300 2    60   ~ 0
LED2
$Comp
L aaa:W5500_Module J4
U 1 1 5C1BE554
P 9100 3050
F 0 "J4" H 8900 3400 60  0000 C CNN
F 1 "W5500_Module" H 9150 2800 60  0000 C CNN
F 2 "Pin_Headers:Pin_Header_Straight_2x05_Pitch2.54mm" H 9100 3050 60  0001 C CNN
F 3 "" H 9100 3050 60  0001 C CNN
	1    9100 3050
	1    0    0    -1  
$EndComp
$Comp
L aaa:FTDI_Module J3
U 1 1 5C1BE60B
P 9650 2000
F 0 "J3" H 9650 2350 50  0000 C CNN
F 1 "FTDI_Module" V 9850 2000 50  0000 C CNN
F 2 "Pin_Headers:Pin_Header_Angled_1x06_Pitch2.54mm" H 9650 2000 50  0001 C CNN
F 3 "" H 9650 2000 50  0001 C CNN
	1    9650 2000
	1    0    0    1   
$EndComp
$Comp
L power:GND #PWR032
U 1 1 5C1BF4D5
P 9350 2350
F 0 "#PWR032" H 9350 2100 50  0001 C CNN
F 1 "GND" H 9350 2200 50  0000 C CNN
F 2 "" H 9350 2350 50  0001 C CNN
F 3 "" H 9350 2350 50  0001 C CNN
	1    9350 2350
	1    0    0    -1  
$EndComp
$Comp
L power:GND #PWR033
U 1 1 5C1BFF12
P 8100 1400
F 0 "#PWR033" H 8100 1150 50  0001 C CNN
F 1 "GND" H 8100 1250 50  0000 C CNN
F 2 "" H 8100 1400 50  0001 C CNN
F 3 "" H 8100 1400 50  0001 C CNN
	1    8100 1400
	1    0    0    -1  
$EndComp
$Comp
L AVRCD-rescue:C_Small C1
U 1 1 5C1C0475
P 9000 1750
F 0 "C1" H 9010 1820 50  0000 L CNN
F 1 "100n" H 9010 1670 50  0000 L CNN
F 2 "Capacitors_SMD:C_1206" H 9000 1750 50  0001 C CNN
F 3 "" H 9000 1750 50  0001 C CNN
	1    9000 1750
	0    1    1    0   
$EndComp
Text Label 8700 1750 0    60   ~ 0
RST
Text Label 9100 1950 0    60   ~ 0
RXD0
Text Label 9100 1850 0    60   ~ 0
TXD0
Text Label 8450 3200 0    60   ~ 0
+5V
Text Label 8450 3100 0    60   ~ 0
GND
Text Label 10050 2800 2    60   ~ 0
SPI_SCK
Text Label 10050 3100 2    60   ~ 0
SPI_MISO
Text Label 10050 3000 2    60   ~ 0
SPI_MOSI
Text Label 10050 2900 2    60   ~ 0
W5500_CS
Text Label 8250 2900 0    60   ~ 0
W5500_INT
Wire Wire Line
	4300 1700 4300 1800
Wire Wire Line
	3900 1800 4300 1800
Wire Wire Line
	4900 1800 4900 1700
Wire Wire Line
	5000 1800 5000 1700
Connection ~ 4900 1800
Wire Wire Line
	5100 1800 5100 1700
Connection ~ 5000 1800
Wire Wire Line
	5200 1800 5200 1700
Connection ~ 5100 1800
Wire Wire Line
	4400 1700 4400 1900
Wire Wire Line
	4400 1900 5000 1900
Wire Wire Line
	5700 1900 5700 1700
Wire Wire Line
	5000 2000 5000 1900
Connection ~ 5000 1900
Wire Wire Line
	7800 1200 8100 1200
Wire Wire Line
	8100 1200 8100 1400
Wire Wire Line
	7800 1000 8100 1000
Wire Wire Line
	8100 1000 8100 800 
Wire Wire Line
	7800 1100 8400 1100
Wire Wire Line
	4100 3900 4500 3900
Wire Wire Line
	4100 3800 4500 3800
Wire Wire Line
	4100 3700 4500 3700
Wire Wire Line
	5800 1700 5800 1800
Wire Wire Line
	5800 1800 6200 1800
Wire Wire Line
	6500 2000 6600 2000
Wire Wire Line
	6600 2000 6600 2100
Connection ~ 4300 1800
Wire Wire Line
	4500 2000 4500 1700
Wire Wire Line
	3700 2000 4500 2000
Wire Wire Line
	3700 2000 3700 1600
Wire Wire Line
	3900 1400 3900 1300
Wire Wire Line
	3900 1100 3900 1000
Wire Wire Line
	4100 3000 5600 3000
Wire Wire Line
	5600 3000 5600 1700
Wire Wire Line
	4100 2900 5500 2900
Wire Wire Line
	5500 2900 5500 1700
Wire Wire Line
	4100 2800 5400 2800
Wire Wire Line
	5400 2800 5400 1700
Wire Wire Line
	4100 2700 5300 2700
Wire Wire Line
	5300 2700 5300 1700
Wire Wire Line
	4100 2600 6600 2600
Wire Wire Line
	6600 2600 6600 2300
Wire Wire Line
	4600 1700 4600 2300
Wire Wire Line
	4600 2300 4100 2300
Wire Wire Line
	4700 1700 4700 2400
Wire Wire Line
	4700 2400 4100 2400
Wire Wire Line
	4800 1700 4800 2500
Wire Wire Line
	4800 2500 4100 2500
Wire Wire Line
	1250 2600 1250 2700
Wire Wire Line
	1250 2700 1350 2700
Connection ~ 1250 2700
Wire Wire Line
	1750 2700 1750 2600
Connection ~ 1750 2700
Wire Wire Line
	1250 2400 1250 2350
Wire Wire Line
	1250 2350 1750 2350
Wire Wire Line
	1750 2350 1750 2400
Wire Wire Line
	2050 2350 2050 2450
Connection ~ 1750 2350
Wire Wire Line
	2050 1950 2050 2000
Connection ~ 2050 2000
Wire Wire Line
	2050 1700 2050 1750
Wire Wire Line
	2050 2300 2100 2300
Wire Wire Line
	2050 2000 2350 2000
Wire Wire Line
	1650 2700 1750 2700
Wire Wire Line
	1250 3100 2100 3100
Wire Wire Line
	4100 5000 4500 5000
Wire Wire Line
	4100 5100 4500 5100
Wire Wire Line
	4800 6200 4800 6300
Wire Wire Line
	5000 6200 5000 6300
Wire Wire Line
	5200 6300 5000 6300
Connection ~ 5000 6300
Wire Wire Line
	5650 6300 5400 6300
Wire Wire Line
	5600 7050 5800 7050
Wire Wire Line
	6200 7050 6200 7150
Wire Wire Line
	5800 7100 5800 7050
Connection ~ 5800 7050
Wire Wire Line
	5000 7550 5800 7550
Wire Wire Line
	6200 7550 6200 7350
Wire Wire Line
	5800 7400 5800 7550
Connection ~ 5800 7550
Wire Wire Line
	6550 7550 6550 7350
Connection ~ 6200 7550
Wire Wire Line
	5600 6750 6550 6750
Wire Wire Line
	6550 6650 6550 6750
Connection ~ 6550 6750
Wire Wire Line
	3650 6750 3650 7050
Wire Wire Line
	3150 7050 3650 7050
Wire Wire Line
	3150 6950 3850 6950
Wire Wire Line
	3150 6850 4400 6850
Connection ~ 3650 7050
Wire Wire Line
	3850 6750 3850 6950
Connection ~ 3850 6950
Wire Wire Line
	3650 6550 3650 6500
Wire Wire Line
	3650 6500 3750 6500
Wire Wire Line
	3850 6500 3850 6550
Wire Wire Line
	3750 6500 3750 6400
Connection ~ 3750 6500
Wire Wire Line
	8650 1050 8900 1050
Wire Wire Line
	4100 5200 4500 5200
Wire Wire Line
	4100 5300 4500 5300
Wire Wire Line
	4100 5400 4500 5400
Wire Wire Line
	4850 5600 4100 5600
Wire Wire Line
	8850 4000 9300 4000
Wire Wire Line
	8850 4200 9300 4200
Wire Wire Line
	9300 4200 9300 4250
Wire Wire Line
	9300 4450 9300 4550
Connection ~ 9300 4200
Wire Wire Line
	9650 4250 9650 4300
Connection ~ 9650 4300
Wire Wire Line
	9650 3900 9650 3950
Wire Wire Line
	9950 3900 9950 4400
Connection ~ 9650 3900
Wire Wire Line
	9650 4750 9650 4800
Wire Wire Line
	9650 4800 9800 4800
Wire Wire Line
	9950 4800 9950 4750
Wire Wire Line
	9800 4850 9800 4800
Connection ~ 9800 4800
Wire Wire Line
	8450 4600 8450 4500
Wire Wire Line
	8050 4000 7900 4000
Wire Wire Line
	7900 4200 8050 4200
Wire Wire Line
	8050 3900 7600 3900
Wire Wire Line
	8450 3700 8450 3650
Wire Wire Line
	8750 4750 8900 4750
Wire Wire Line
	8750 4950 8900 4950
Wire Wire Line
	8900 5000 8900 4950
Connection ~ 8900 4950
Wire Wire Line
	8900 4700 8900 4750
Connection ~ 8900 4750
Wire Wire Line
	7900 4100 7600 4100
Connection ~ 7900 4100
Wire Wire Line
	9300 3750 9300 3700
Wire Wire Line
	9300 4000 9300 3950
Connection ~ 9300 4000
Wire Wire Line
	9450 4200 9450 4300
Wire Wire Line
	9450 4000 9450 3900
Wire Wire Line
	9450 3900 9650 3900
Wire Wire Line
	9450 4300 9650 4300
Wire Wire Line
	10450 4500 10550 4500
Wire Wire Line
	10550 4100 10150 4100
Wire Wire Line
	10150 4100 10150 4300
Wire Wire Line
	10150 4500 10250 4500
Connection ~ 10150 4300
Wire Wire Line
	9950 4400 10350 4400
Wire Wire Line
	10350 4400 10350 4300
Wire Wire Line
	10350 4300 10550 4300
Connection ~ 9950 4400
Wire Wire Line
	10300 3900 10300 3800
Wire Wire Line
	10300 3800 10450 3800
Wire Wire Line
	10450 3800 10450 3900
Wire Wire Line
	10450 3900 10550 3900
Wire Wire Line
	10450 3600 10450 3700
Wire Wire Line
	10450 3700 10550 3700
Wire Wire Line
	3150 6000 3050 6000
Wire Wire Line
	3000 6000 3000 6100
Connection ~ 3000 6000
Connection ~ 2950 6000
Connection ~ 3050 6000
Wire Wire Line
	2750 2000 2850 2000
Connection ~ 2850 2000
Connection ~ 2950 2000
Wire Wire Line
	3100 2000 3100 1900
Connection ~ 3100 2000
Wire Wire Line
	4100 4100 4500 4100
Wire Wire Line
	4100 4200 4500 4200
Wire Wire Line
	4100 4300 4500 4300
Wire Wire Line
	4100 4500 4750 4500
Wire Wire Line
	4600 4050 4950 4050
Wire Wire Line
	4100 4600 4700 4600
Wire Wire Line
	4650 4150 5150 4150
Wire Wire Line
	4700 4250 5350 4250
Wire Wire Line
	4950 4650 4950 4750
Wire Wire Line
	4950 4750 5150 4750
Wire Wire Line
	5550 4750 5550 4650
Wire Wire Line
	5150 4650 5150 4750
Connection ~ 5150 4750
Wire Wire Line
	5350 4650 5350 4750
Connection ~ 5350 4750
Wire Wire Line
	5850 4450 5800 4450
Wire Wire Line
	5800 4450 5800 4550
Wire Wire Line
	4950 3350 4950 3250
Wire Wire Line
	4950 3250 5150 3250
Wire Wire Line
	5550 3250 5550 3350
Wire Wire Line
	5350 3350 5350 3250
Connection ~ 5350 3250
Wire Wire Line
	5150 3350 5150 3250
Connection ~ 5150 3250
Wire Wire Line
	4950 3550 4950 3650
Connection ~ 4950 3650
Wire Wire Line
	5150 3550 5150 3750
Connection ~ 5150 3750
Wire Wire Line
	5350 3550 5350 3850
Connection ~ 5350 3850
Wire Wire Line
	5550 3550 5550 3950
Connection ~ 5550 3950
Wire Wire Line
	4950 4450 4950 4050
Connection ~ 4950 4050
Wire Wire Line
	5150 4450 5150 4150
Connection ~ 5150 4150
Wire Wire Line
	5350 4450 5350 4250
Connection ~ 5350 4250
Wire Wire Line
	5550 4450 5550 4350
Connection ~ 5550 4350
Connection ~ 5550 3250
Connection ~ 5550 4750
Wire Wire Line
	5350 5450 5500 5450
Wire Wire Line
	5700 5450 6050 5450
Wire Wire Line
	6050 5450 6050 5550
Wire Wire Line
	6050 5750 6050 6000
Wire Wire Line
	6350 5450 6350 5550
Connection ~ 6050 5450
Wire Wire Line
	6350 5750 6350 6000
Connection ~ 6350 5450
Wire Wire Line
	7850 5450 8000 5450
Wire Wire Line
	8500 5350 8500 5450
Wire Wire Line
	8000 5500 8000 5450
Connection ~ 8000 5450
Wire Wire Line
	7300 5900 7300 6000
Wire Wire Line
	6050 6000 6350 6000
Wire Wire Line
	8500 5700 8500 6000
Wire Wire Line
	8000 5700 8000 6000
Connection ~ 8000 6000
Connection ~ 7300 6000
Connection ~ 6350 6000
Connection ~ 8500 6000
Connection ~ 8500 5450
Wire Wire Line
	8800 5950 9050 5950
Connection ~ 9050 5950
Connection ~ 9300 5950
Wire Wire Line
	8800 5750 9050 5750
Connection ~ 9050 5750
Connection ~ 9300 5750
Connection ~ 8800 5950
Connection ~ 8800 5750
Wire Wire Line
	7550 1000 6900 1000
Wire Wire Line
	7550 1200 6900 1200
Wire Wire Line
	7550 1100 6900 1100
Wire Wire Line
	4700 6300 4800 6300
Connection ~ 4800 6300
Wire Wire Line
	4500 6300 4250 6300
Wire Wire Line
	7600 4300 8050 4300
Wire Wire Line
	7900 4000 7900 4100
Wire Wire Line
	9450 1050 9700 1050
Wire Wire Line
	4100 4400 4550 4400
Wire Wire Line
	4250 6300 4250 6400
Wire Wire Line
	5650 6400 5650 6300
Wire Wire Line
	9450 2250 9350 2250
Wire Wire Line
	9350 2250 9350 2350
Wire Wire Line
	9450 1950 9100 1950
Wire Wire Line
	9450 1850 9100 1850
Wire Wire Line
	9450 1750 9100 1750
Wire Wire Line
	8900 1750 8700 1750
Wire Wire Line
	9550 2800 10050 2800
Wire Wire Line
	9550 2900 10050 2900
Wire Wire Line
	9550 3000 10050 3000
Wire Wire Line
	9550 3100 10050 3100
Wire Wire Line
	8700 3200 8450 3200
Wire Wire Line
	8700 3100 8450 3100
Wire Wire Line
	8250 3000 8700 3000
Wire Wire Line
	8250 2900 8700 2900
Text Label 8250 3000 0    60   ~ 0
W5500_RST
Wire Wire Line
	4100 3600 4600 3600
Text Label 4600 3600 2    60   ~ 0
W5500_CS
Wire Wire Line
	4100 3500 4600 3500
Text Label 4600 3500 2    60   ~ 0
W5500_RST
Wire Wire Line
	4100 3400 4600 3400
Text Label 4600 3400 2    60   ~ 0
W5500_INT
Wire Wire Line
	4850 3750 4850 5600
Wire Wire Line
	4550 3950 5550 3950
Wire Wire Line
	4800 3650 4800 5700
$Comp
L AVRCD-rescue:LED D3
U 1 1 5C1DB201
P 9300 750
F 0 "D3" H 9300 850 50  0000 C CNN
F 1 "LED" H 9300 650 50  0000 C CNN
F 2 "LEDs:LED_1206" H 9300 750 50  0001 C CNN
F 3 "" H 9300 750 50  0001 C CNN
	1    9300 750 
	1    0    0    -1  
$EndComp
$Comp
L AVRCD-rescue:R_Small R4
U 1 1 5C1DB207
P 9000 750
F 0 "R4" H 9030 770 50  0000 L CNN
F 1 "470" H 9030 710 50  0000 L CNN
F 2 "Resistors_SMD:R_1206" H 9000 750 50  0001 C CNN
F 3 "" H 9000 750 50  0001 C CNN
	1    9000 750 
	0    1    1    0   
$EndComp
Wire Wire Line
	8650 750  8900 750 
Wire Wire Line
	9450 750  9700 750 
Text Label 9700 750  2    60   ~ 0
RW1
$Comp
L power:GND #PWR034
U 1 1 5C1DB78F
P 8650 1400
F 0 "#PWR034" H 8650 1150 50  0001 C CNN
F 1 "GND" H 8650 1250 50  0000 C CNN
F 2 "" H 8650 1400 50  0001 C CNN
F 3 "" H 8650 1400 50  0001 C CNN
	1    8650 1400
	1    0    0    -1  
$EndComp
Wire Wire Line
	8650 750  8650 1050
Connection ~ 8650 1050
$Comp
L AVRCD-rescue:LED D2
U 1 1 5C1DE2C3
P 9300 1350
F 0 "D2" H 9300 1450 50  0000 C CNN
F 1 "LED" H 9300 1250 50  0000 C CNN
F 2 "LEDs:LED_1206" H 9300 1350 50  0001 C CNN
F 3 "" H 9300 1350 50  0001 C CNN
	1    9300 1350
	1    0    0    -1  
$EndComp
$Comp
L AVRCD-rescue:R_Small R5
U 1 1 5C1DE2C9
P 9000 1350
F 0 "R5" H 9030 1370 50  0000 L CNN
F 1 "470" H 9030 1310 50  0000 L CNN
F 2 "Resistors_SMD:R_1206" H 9000 1350 50  0001 C CNN
F 3 "" H 9000 1350 50  0001 C CNN
	1    9000 1350
	0    1    1    0   
$EndComp
Text Label 9700 1350 2    60   ~ 0
LED2
Wire Wire Line
	8650 1350 8900 1350
Wire Wire Line
	9450 1350 9700 1350
Wire Wire Line
	8650 1050 8650 1350
Connection ~ 8650 1350
Wire Wire Line
	4800 3650 4950 3650
Wire Wire Line
	4850 3750 5150 3750
Wire Wire Line
	4900 3850 5350 3850
Wire Wire Line
	4100 3200 4600 3200
Wire Wire Line
	4100 3300 4600 3300
Wire Wire Line
	9100 1350 9150 1350
Wire Wire Line
	9100 1050 9150 1050
Wire Wire Line
	9100 750  9150 750 
$Comp
L AVRCD-rescue:C_Small C4
U 1 1 5C1E33B6
P 7600 3000
F 0 "C4" H 7610 3070 50  0000 L CNN
F 1 "100n" H 7610 2920 50  0000 L CNN
F 2 "Capacitors_SMD:C_1206" H 7600 3000 50  0001 C CNN
F 3 "" H 7600 3000 50  0001 C CNN
	1    7600 3000
	-1   0    0    1   
$EndComp
$Comp
L AVRCD-rescue:CP_Small C5
U 1 1 5C1E33BC
P 7900 3000
F 0 "C5" H 7910 3070 50  0000 L CNN
F 1 "22u/6.3" H 7910 2920 50  0000 L CNN
F 2 "Capacitors_Tantalum_SMD:CP_Tantalum_Case-B_EIA-3528-21_Reflow" H 7900 3000 50  0001 C CNN
F 3 "" H 7900 3000 50  0001 C CNN
	1    7900 3000
	1    0    0    -1  
$EndComp
$Comp
L power:GND #PWR035
U 1 1 5C1E33C2
P 7750 3150
F 0 "#PWR035" H 7750 2900 50  0001 C CNN
F 1 "GND" H 7750 3000 50  0000 C CNN
F 2 "" H 7750 3150 50  0001 C CNN
F 3 "" H 7750 3150 50  0001 C CNN
	1    7750 3150
	1    0    0    -1  
$EndComp
$Comp
L power:+5V #PWR036
U 1 1 5C1E33C8
P 7750 2850
F 0 "#PWR036" H 7750 2700 50  0001 C CNN
F 1 "+5V" H 7750 2990 50  0000 C CNN
F 2 "" H 7750 2850 50  0001 C CNN
F 3 "" H 7750 2850 50  0001 C CNN
	1    7750 2850
	1    0    0    -1  
$EndComp
Wire Wire Line
	7600 2900 7750 2900
Wire Wire Line
	7600 3100 7750 3100
Wire Wire Line
	7750 3150 7750 3100
Connection ~ 7750 3100
Wire Wire Line
	7750 2850 7750 2900
Connection ~ 7750 2900
$Comp
L AVRCD-rescue:C_Small C6
U 1 1 5C1E3F4E
P 9800 5850
F 0 "C6" H 9810 5920 50  0000 L CNN
F 1 "100n" H 9810 5770 50  0000 L CNN
F 2 "Capacitors_SMD:C_1206" H 9800 5850 50  0001 C CNN
F 3 "" H 9800 5850 50  0001 C CNN
	1    9800 5850
	1    0    0    -1  
$EndComp
$Comp
L AVRCD-rescue:C_Small C24
U 1 1 5C1E4023
P 10050 5850
F 0 "C24" H 10060 5920 50  0000 L CNN
F 1 "100n" H 10060 5770 50  0000 L CNN
F 2 "Capacitors_SMD:C_1206" H 10050 5850 50  0001 C CNN
F 3 "" H 10050 5850 50  0001 C CNN
	1    10050 5850
	1    0    0    -1  
$EndComp
Connection ~ 9550 5750
Connection ~ 9550 5950
Connection ~ 9800 5950
Connection ~ 9800 5750
$Comp
L AVRCD-rescue:C_Small C25
U 1 1 5C1E4D4E
P 10300 5850
F 0 "C25" H 10310 5920 50  0000 L CNN
F 1 "100n" H 10310 5770 50  0000 L CNN
F 2 "Capacitors_SMD:C_1206" H 10300 5850 50  0001 C CNN
F 3 "" H 10300 5850 50  0001 C CNN
	1    10300 5850
	1    0    0    -1  
$EndComp
Connection ~ 10050 5750
Connection ~ 10050 5950
Wire Wire Line
	4800 5700 4100 5700
Wire Wire Line
	4100 5500 4900 5500
Wire Wire Line
	4900 5500 4900 3850
Wire Wire Line
	9450 2150 9100 2150
Text Label 9100 2150 0    60   ~ 0
LED1
Wire Wire Line
	4550 4400 4550 3950
Wire Wire Line
	4750 4500 4750 4350
Wire Wire Line
	4750 4350 5550 4350
Wire Wire Line
	4700 4600 4700 4250
Wire Wire Line
	4650 4150 4650 4700
Wire Wire Line
	4600 4050 4600 4800
Wire Wire Line
	4600 4800 4100 4800
Wire Wire Line
	4650 4700 4100 4700
Wire Wire Line
	4900 1800 5000 1800
Wire Wire Line
	5000 1800 5100 1800
Wire Wire Line
	5100 1800 5200 1800
Wire Wire Line
	5000 1900 5700 1900
Wire Wire Line
	4300 1800 4300 2100
Wire Wire Line
	4300 1800 4900 1800
Wire Wire Line
	1250 2700 1250 3100
Wire Wire Line
	1750 2700 2100 2700
Wire Wire Line
	1750 2350 2050 2350
Wire Wire Line
	2050 2000 2050 2300
Wire Wire Line
	5000 6300 5000 6350
Wire Wire Line
	5800 7050 6200 7050
Wire Wire Line
	5800 7550 6200 7550
Wire Wire Line
	6200 7550 6550 7550
Wire Wire Line
	6550 6750 6550 7150
Wire Wire Line
	3650 7050 4400 7050
Wire Wire Line
	3850 6950 4400 6950
Wire Wire Line
	3750 6500 3850 6500
Wire Wire Line
	9300 4200 9450 4200
Wire Wire Line
	9650 4300 9650 4450
Wire Wire Line
	9650 4300 10150 4300
Wire Wire Line
	9650 3900 9950 3900
Wire Wire Line
	9800 4800 9950 4800
Wire Wire Line
	8900 4950 9050 4950
Wire Wire Line
	8900 4750 9050 4750
Wire Wire Line
	7900 4100 7900 4200
Wire Wire Line
	9300 4000 9450 4000
Wire Wire Line
	10150 4300 10150 4500
Wire Wire Line
	9950 4400 9950 4450
Wire Wire Line
	3000 6000 2950 6000
Wire Wire Line
	2950 6000 2850 6000
Wire Wire Line
	3050 6000 3000 6000
Wire Wire Line
	2850 2000 2950 2000
Wire Wire Line
	2950 2000 3100 2000
Wire Wire Line
	3100 2000 3250 2000
Wire Wire Line
	5150 4750 5350 4750
Wire Wire Line
	5350 4750 5550 4750
Wire Wire Line
	5350 3250 5550 3250
Wire Wire Line
	5150 3250 5350 3250
Wire Wire Line
	4950 3650 5850 3650
Wire Wire Line
	5150 3750 5850 3750
Wire Wire Line
	5350 3850 5850 3850
Wire Wire Line
	5550 3950 5850 3950
Wire Wire Line
	4950 4050 5850 4050
Wire Wire Line
	5150 4150 5850 4150
Wire Wire Line
	5350 4250 5850 4250
Wire Wire Line
	5550 4350 5850 4350
Wire Wire Line
	6050 5450 6350 5450
Wire Wire Line
	6350 5450 6750 5450
Wire Wire Line
	8000 5450 8500 5450
Wire Wire Line
	8000 6000 8500 6000
Wire Wire Line
	7300 6000 8000 6000
Wire Wire Line
	6350 6000 7300 6000
Wire Wire Line
	8500 6000 8500 6100
Wire Wire Line
	8500 5450 8500 5500
Wire Wire Line
	9050 5950 9300 5950
Wire Wire Line
	9300 5950 9550 5950
Wire Wire Line
	9050 5750 9300 5750
Wire Wire Line
	9300 5750 9550 5750
Wire Wire Line
	4800 6300 4800 6350
Wire Wire Line
	8650 1050 8650 1100
Wire Wire Line
	8650 1350 8650 1400
Wire Wire Line
	7750 3100 7900 3100
Wire Wire Line
	7750 2900 7900 2900
Wire Wire Line
	9550 5750 9800 5750
Wire Wire Line
	9550 5950 9800 5950
Wire Wire Line
	9800 5950 10050 5950
Wire Wire Line
	9800 5750 10050 5750
Wire Wire Line
	10050 5750 10300 5750
Wire Wire Line
	10050 5950 10300 5950
$EndSCHEMATC
