G04 #@! TF.FileFunction,Soldermask,Top*
%FSLAX46Y46*%
G04 Gerber Fmt 4.6, Leading zero omitted, Abs format (unit mm)*
G04 Created by KiCad (PCBNEW 4.0.7-e2-6376~61~ubuntu18.04.1) date Sun Dec 23 20:46:06 2018*
%MOMM*%
%LPD*%
G01*
G04 APERTURE LIST*
%ADD10C,0.100000*%
%ADD11R,1.600000X1.000000*%
%ADD12R,1.950000X2.500000*%
%ADD13R,1.000000X1.600000*%
%ADD14R,2.000000X2.000000*%
%ADD15C,2.000000*%
%ADD16R,1.700000X0.900000*%
%ADD17R,0.900000X1.700000*%
%ADD18C,2.340000*%
%ADD19C,1.500000*%
%ADD20C,4.000000*%
%ADD21R,4.000000X4.000000*%
%ADD22C,1.000000*%
%ADD23R,1.200000X1.200000*%
%ADD24R,1.800000X1.800000*%
%ADD25O,1.800000X1.800000*%
%ADD26R,1.700000X1.700000*%
%ADD27O,1.700000X1.700000*%
%ADD28C,3.000000*%
%ADD29R,3.000000X3.000000*%
%ADD30C,6.500000*%
G04 APERTURE END LIST*
D10*
D11*
X190500000Y-108990000D03*
X190500000Y-111990000D03*
X121920000Y-84860000D03*
X121920000Y-87860000D03*
X116840000Y-84860000D03*
X116840000Y-87860000D03*
D12*
X136145000Y-86360000D03*
X133095000Y-86360000D03*
D13*
X142470000Y-81280000D03*
X139470000Y-81280000D03*
X140740000Y-91440000D03*
X143740000Y-91440000D03*
D11*
X132080000Y-111990000D03*
X132080000Y-108990000D03*
D14*
X170180000Y-99060000D03*
D15*
X175180000Y-99060000D03*
D11*
X176530000Y-84050000D03*
X176530000Y-81050000D03*
X181610000Y-84050000D03*
X181610000Y-81050000D03*
D14*
X187960000Y-99060000D03*
D15*
X182960000Y-99060000D03*
D13*
X111530000Y-99060000D03*
X114530000Y-99060000D03*
D11*
X167640000Y-111990000D03*
X167640000Y-108990000D03*
X116840000Y-104370000D03*
X116840000Y-101370000D03*
D13*
X139470000Y-78740000D03*
X142470000Y-78740000D03*
D16*
X114300000Y-84910000D03*
X114300000Y-87810000D03*
D17*
X125550000Y-78740000D03*
X128450000Y-78740000D03*
D16*
X147320000Y-111940000D03*
X147320000Y-109040000D03*
X149860000Y-111940000D03*
X149860000Y-109040000D03*
X152400000Y-111940000D03*
X152400000Y-109040000D03*
X154940000Y-111940000D03*
X154940000Y-109040000D03*
X157480000Y-109040000D03*
X157480000Y-111940000D03*
X160020000Y-109040000D03*
X160020000Y-111940000D03*
X162560000Y-109040000D03*
X162560000Y-111940000D03*
X165100000Y-109040000D03*
X165100000Y-111940000D03*
D17*
X140790000Y-86360000D03*
X143690000Y-86360000D03*
X140790000Y-88900000D03*
X143690000Y-88900000D03*
D18*
X96520000Y-104060000D03*
X91520000Y-101560000D03*
X96520000Y-99060000D03*
D19*
X124460000Y-86360000D03*
X119580000Y-86360000D03*
D20*
X154940000Y-83820000D03*
D21*
X160020000Y-83820000D03*
X162560000Y-83820000D03*
D20*
X152560000Y-83820000D03*
D22*
X144780000Y-81280000D03*
X144780000Y-78740000D03*
D23*
X136030000Y-82010000D03*
X136030000Y-78010000D03*
D17*
X125550000Y-76200000D03*
X128450000Y-76200000D03*
X125550000Y-81280000D03*
X128450000Y-81280000D03*
D13*
X122150000Y-99060000D03*
X119150000Y-99060000D03*
D11*
X116840000Y-93750000D03*
X116840000Y-96750000D03*
D24*
X181610000Y-86360000D03*
D25*
X179070000Y-86360000D03*
X176530000Y-86360000D03*
D26*
X101600000Y-86360000D03*
D27*
X101600000Y-88900000D03*
X104140000Y-86360000D03*
X104140000Y-88900000D03*
X106680000Y-86360000D03*
X106680000Y-88900000D03*
D26*
X147320000Y-106680000D03*
D27*
X149860000Y-106680000D03*
X152400000Y-106680000D03*
X154940000Y-106680000D03*
X157480000Y-106680000D03*
X160020000Y-106680000D03*
X162560000Y-106680000D03*
X165100000Y-106680000D03*
X167640000Y-106680000D03*
D28*
X204470000Y-88900000D03*
X204470000Y-93980000D03*
D29*
X204470000Y-83820000D03*
D28*
X204470000Y-99060000D03*
X204470000Y-104140000D03*
D26*
X177800000Y-106680000D03*
D27*
X180340000Y-106680000D03*
X182880000Y-106680000D03*
X185420000Y-106680000D03*
X187960000Y-106680000D03*
X190500000Y-106680000D03*
D26*
X101600000Y-76200000D03*
D27*
X101600000Y-78740000D03*
X104140000Y-76200000D03*
X104140000Y-78740000D03*
X106680000Y-76200000D03*
X106680000Y-78740000D03*
X109220000Y-76200000D03*
X109220000Y-78740000D03*
X111760000Y-76200000D03*
X111760000Y-78740000D03*
X99060000Y-114300000D03*
X101600000Y-114300000D03*
X104140000Y-114300000D03*
X106680000Y-114300000D03*
X109220000Y-114300000D03*
X111760000Y-114300000D03*
X114300000Y-114300000D03*
X116840000Y-114300000D03*
X119380000Y-114300000D03*
X121920000Y-114300000D03*
X124460000Y-114300000D03*
X127000000Y-114300000D03*
X129540000Y-114300000D03*
X132080000Y-114300000D03*
X134620000Y-114300000D03*
X137160000Y-114300000D03*
D30*
X206580000Y-113300000D03*
X206580000Y-76300000D03*
X91580000Y-113300000D03*
X91580000Y-76300000D03*
M02*
